module gitlab.oit.duke.edu/devil-ops/go-shibreg

go 1.22.2

require (
	github.com/stretchr/testify v1.9.0
	moul.io/http2curl v1.0.0
)

require (
	github.com/davecgh/go-spew v1.1.1 // indirect
	github.com/pmezard/go-difflib v1.0.0 // indirect
	github.com/smartystreets/goconvey v1.8.1 // indirect
	gopkg.in/yaml.v3 v3.0.1 // indirect
)
